{
  "DataProvider": "sqlserver",
  "DataConnectionString": "Data Source=65.0.176.95,1433;Initial Catalog=NOP;Integrated Security=False;Persist Security Info=False;User ID=vinay;Password=Binni@1998",
  "RawDataSettings": {}
}
